id,name,model_id:id,group_id:id,perm_read,perm_write,perm_create,perm_unlink
access_profilecategory,profilecategory.manager,model_anv_profilecategory,,1,1,1,1
access_profilecategory_user,profilecategory.user,model_anv_profilecategory,,1,1,1,1

access_construction_manager,construction.manager,model_anv_construction,,1,1,1,1
access_construction_user,construction.user,model_anv_construction,,1,1,1,1

access_doorcategory,doorcategory.manager,model_anv_doorcategory,,1,1,1,1
access_doorcategory_user,doorcategory.user,model_anv_doorcategory,,1,1,1,1

access_consdoor,consdoor.manager,model_anv_consdoor,,1,1,1,1
access_consdoor_user,consdoor.user,model_anv_consdoor,,1,1,1,1

access_consdoorprofile,consdoorprofile.manager,model_anv_consdoorprofile,,1,1,1,1
access_consdoorprofile_user,consdoorprofile.user,model_anv_consdoorprofile,,1,1,1,1

access_consdoorglasses,consdoorglasses.manager,model_anv_consdoorglasses,,1,1,1,1
access_consdoorglasses_user,consdoorglasses.user,model_anv_consdoorglasses,,1,1,1,1

access_onsdoorprice,consdoorprice.manager,model_anv_consdoorprice,,1,1,1,1
access_consdoorprice_user,consdoorprice.user,model_anv_consdoorprice,,1,1,1,1


access_consdooraccessories,consdooraccessories.manager,model_anv_consdooraccessories,,1,1,1,1
access_consdooraccessories_user,consdooraccessories.user,model_anv_consdooraccessories,,1,1,1,1

access_consdoor_base_settings,consdoor_base_settings.manager,model_anv_consdoor_base_settings,,1,1,1,1
access_consdoor_advanced_settings_user,consdoor_advanced_settings.user,model_anv_consdoor_advanced_settings,,1,1,1,1

access_anv_catalog,anv_catalog.manager,model_anv_catalog,,1,1,1,1
access_anv_catalog_user,anv_catalog.user,model_anv_catalog,,1,0,0,0

access_anv_thumbnail,anv_thumbnail.manager,model_anv_thumbnail,,1,1,1,1
access_anv_thumbnail_user,anv_thumbnail.user,model_anv_thumbnail,,1,0,0,0

access_address_book,address_book.manager,model_address_book,,1,1,1,1
access_address_book_user,address_book.user,model_address_book,,1,0,0,0