<?xml version="1.0" standalone="no"?>
<!DOCTYPE svg PUBLIC "-//W3C//DTD SVG 20010904//EN"
 "http://www.w3.org/TR/2001/REC-SVG-20010904/DTD/svg10.dtd">
<svg version="1.0" xmlns="http://www.w3.org/2000/svg"
 width="180.000000pt" height="180.000000pt" viewBox="0 0 180.000000 180.000000"
 preserveAspectRatio="xMidYMid meet">
<metadata>
Created by potrace 1.10, written by Peter Selinger 2001-2011
</metadata>
<g transform="translate(0.000000,180.000000) scale(0.100000,-0.100000)"
fill="#000000" stroke="none">
<path d="M275 1630 c-79 -5 -80 -5 -86 -35 -7 -35 0 -85 13 -102 13 -16 730
-18 759 -2 15 8 19 21 19 62 0 29 -4 58 -8 64 -6 10 -84 13 -313 15 -167 2
-340 1 -384 -2z m685 -72 l0 -53 -375 0 -375 0 0 53 0 52 375 0 375 0 0 -52z"/>
<path d="M1164 1492 c-22 -35 21 -202 55 -214 6 -1 11 -36 12 -77 3 -101 -12
-107 -130 -55 -55 25 -85 24 -95 -1 -5 -15 -7 -205 -6 -722 0 -233 2 -274 16
-287 13 -14 52 -16 272 -16 141 0 267 3 279 6 30 8 36 31 15 59 -28 37 -68 45
-225 45 -128 0 -149 2 -165 18 -30 30 -45 79 -40 130 4 45 61 179 82 194 12 8
36 -1 36 -14 0 -11 25 -41 74 -89 33 -34 74 -38 134 -14 44 18 63 49 82 135 8
39 9 71 2 110 -5 30 -7 108 -5 174 4 92 1 128 -11 160 -16 41 -16 54 2 118 5
19 8 52 7 72 -2 30 5 46 31 78 31 37 45 69 60 144 6 31 -11 56 -42 60 -35 5
-135 -49 -188 -102 -14 -14 -30 -8 -65 24 -44 41 -52 46 -101 65 -58 22 -72
21 -86 -1z m143 -57 c14 -9 32 -30 41 -45 14 -24 21 -28 47 -23 16 3 46 20 65
38 42 39 83 61 132 70 l36 7 -9 -47 c-11 -59 -48 -127 -75 -139 -18 -8 -20
-16 -16 -60 2 -30 -2 -73 -11 -104 -15 -47 -14 -55 0 -90 13 -29 17 -80 19
-242 1 -113 -2 -221 -7 -241 -13 -51 -48 -85 -97 -94 -53 -9 -68 2 -132 93
-28 40 -54 72 -58 72 -8 0 -32 -40 -75 -125 -52 -103 -48 -222 9 -276 25 -23
31 -24 177 -24 134 0 156 -3 186 -20 37 -22 57 -53 27 -42 -10 4 -135 7 -279
7 l-262 0 2 495 c1 272 6 495 10 495 4 0 40 -11 79 -26 40 -14 85 -24 105 -22
l34 3 3 92 c3 89 2 92 -26 121 -31 32 -61 130 -53 174 1 8 96 -26 128 -47z"/>
<path d="M1334 707 c-30 -17 -78 -57 -73 -60 2 -2 22 -17 44 -34 23 -17 57
-39 78 -49 l37 -18 35 37 c19 20 35 42 35 50 0 17 -35 50 -77 71 -38 19 -51
19 -79 3z m101 -45 l27 -21 -21 -29 c-16 -23 -26 -28 -46 -24 -14 2 -25 8 -25
13 0 5 -4 9 -10 9 -14 0 -50 32 -50 45 0 15 40 31 71 30 15 -1 39 -11 54 -23z"/>
<path d="M336 1443 c-69 -2 -126 -8 -133 -15 -10 -8 -13 -30 -11 -72 l3 -61
379 -3 c271 -1 383 1 392 9 9 7 14 32 14 65 0 41 -4 55 -18 63 -20 11 -428 20
-626 14z m624 -83 l0 -50 -375 0 -375 0 0 53 0 52 375 -3 375 -2 0 -50z"/>
<path d="M195 1230 c-3 -5 -7 -33 -7 -60 -1 -38 3 -55 18 -68 11 -10 24 -17
29 -16 6 1 168 4 360 7 252 2 356 7 373 16 23 12 24 23 6 109 l-4 22 -385 0
c-244 0 -386 -4 -390 -10z m765 -60 l0 -50 -375 0 -375 0 0 50 0 50 375 0 375
0 0 -50z"/>
<path d="M194 1028 c-10 -33 -6 -99 7 -114 16 -20 751 -21 767 -1 21 25 25 86
8 112 l-16 25 -380 0 -379 0 -7 -22z m766 -58 l0 -50 -375 0 -375 0 0 53 0 52
375 -3 375 -2 0 -50z"/>
<path d="M260 850 l-65 -5 -3 -59 c-2 -32 1 -63 6 -68 11 -11 749 -11 769 1
19 10 24 108 6 123 -13 11 -591 17 -713 8z m700 -70 l0 -50 -375 0 -375 0 0
50 0 50 375 0 375 0 0 -50z"/>
<path d="M202 648 c-17 -17 -15 -113 2 -127 10 -9 115 -12 382 -11 315 0 371
3 384 16 22 22 18 103 -5 121 -26 18 -745 19 -763 1z m758 -66 l0 -47 -375 0
-375 0 0 50 0 50 375 -3 375 -2 0 -48z"/>
<path d="M305 461 l-110 -6 -3 -59 c-2 -33 2 -64 8 -70 16 -16 757 -10 774 6
15 16 10 109 -7 120 -7 4 -70 8 -142 8 -71 0 -193 2 -270 4 -77 2 -189 1 -250
-3z m655 -71 l0 -50 -375 0 -375 0 0 50 0 50 375 0 375 0 0 -50z"/>
<path d="M224 271 c-27 -5 -34 -19 -34 -78 0 -42 4 -54 19 -63 31 -16 732 -14
755 3 11 8 19 30 22 58 7 81 19 79 -388 81 -195 2 -363 1 -374 -1z m736 -73
l0 -48 -375 -2 -375 -3 0 50 0 50 375 0 375 0 0 -47z"/>
</g>
</svg>
